[
    {
        "id": 41,
        "name": "CLIMATE_PARAMETERS",
        "values": {
            "k_margin": 1.1,
            "unused_1": 0.0,
            "unused_2": 0.0,
            "unused_3": 0.0
        }
    },
    {
        "id": 66,
        "name": "COMPLIANCE_GAIN",
        "values": null
    },
    {
        "id": 68,
        "name": "COMPLIANCE_PARAMETERS",
        "values": {
            "beta": null,
            "compliance_gain": null,
            "stop_compliance_factor": null,
            "trigger_alpha": null
        }
    },
    {
        "id": 128,
        "name": "COMS_PROTOCOL",
        "values": null
    },
    {
        "id": 21,
        "name": "CURRENT_GAIN",
        "values": {
            "KD": null,
            "KF": null,
            "KI": null,
            "KO": null,
            "KP": null,
            "MI": null
        }
    },
    {
        "id": 65,
        "name": "CURRENT_HOLD_THRESHOLD",
        "values": null
    },
    {
        "id": 18,
        "name": "CURRENT_LIMIT",
        "values": {
            "max": null,
            "min": null
        }
    },
    {
        "id": 28,
        "name": "CURRENT_LIMIT_FACTORY",
        "values": {
            "max": null,
            "min": null
        }
    },
    {
        "id": 34,
        "name": "CURRENT_PARAMETERS",
        "values": {
            "alpha": null,
            "beta": null,
            "offset": null,
            "scale": null
        }
    },
    {
        "id": 103,
        "name": "DEVICE_TYPE",
        "values": null
    },
    {
        "id": 146,
        "name": "HEARTBEAT_FREQUENCY_SET",
        "values": null
    },
    {
        "id": 35,
        "name": "INPUT_VOLTAGE_PARAMETERS",
        "values": {
            "alpha": null,
            "beta": null,
            "offset": null,
            "scale": null
        }
    },
    {
        "id": 184,
        "name": "KM_DH_PARAMETERS_0",
        "values": {
            "a": 0.0,
            "alpha": 3.1414999961853,
            "d": 0.0,
            "theta_max": -1.0,
            "theta_min": -1.0,
            "theta_offset": 0.0
        }
    },
    {
        "id": 185,
        "name": "KM_DH_PARAMETERS_1",
        "values": {
            "a": 4.0,
            "alpha": 1.57070004940032,
            "d": -133.0,
            "theta_max": 3.0,
            "theta_min": 0.0,
            "theta_offset": 1.04700005054473
        }
    },
    {
        "id": 186,
        "name": "KM_DH_PARAMETERS_2",
        "values": {
            "a": null,
            "alpha": null,
            "d": null,
            "theta_max": null,
            "theta_min": null,
            "theta_offset": null
        }
    },
    {
        "id": 187,
        "name": "KM_DH_PARAMETERS_3",
        "values": {
            "a": null,
            "alpha": null,
            "d": null,
            "theta_max": null,
            "theta_min": null,
            "theta_offset": null
        }
    },
    {
        "id": 188,
        "name": "KM_DH_PARAMETERS_4",
        "values": {
            "a": null,
            "alpha": null,
            "d": null,
            "theta_max": null,
            "theta_min": null,
            "theta_offset": null
        }
    },
    {
        "id": 189,
        "name": "KM_DH_PARAMETERS_5",
        "values": {
            "a": null,
            "alpha": null,
            "d": null,
            "theta_max": null,
            "theta_min": null,
            "theta_offset": null
        }
    },
    {
        "id": 190,
        "name": "KM_DH_PARAMETERS_6",
        "values": {
            "a": null,
            "alpha": null,
            "d": null,
            "theta_max": null,
            "theta_min": null,
            "theta_offset": null
        }
    },
    {
        "id": 191,
        "name": "KM_DH_PARAMETERS_7",
        "values": {
            "a": null,
            "alpha": null,
            "d": null,
            "theta_max": null,
            "theta_min": null,
            "theta_offset": null
        }
    },
    {
        "id": 118,
        "name": "KM_FLOAT_PARAMETERS_2",
        "values": {
            "max_pen_correction": null,
            "max_vel_in_pen": null,
            "obs_equilib_dist": null,
            "obs_reaction_dist": null,
            "self_equilib_dist": null,
            "self_reaction_dist": null,
            "vel_half": null
        }
    },
    {
        "id": 64,
        "name": "MAX_ACCELERATION",
        "values": 4.0
    },
    {
        "id": 98,
        "name": "MODEL_NUMBER",
        "values": 5002.0
    },
    {
        "id": 67,
        "name": "MODE_SETTINGS",
        "values": {
            "compliance": null,
            "current_hold": null
        }
    },
    {
        "id": 48,
        "name": "MOTOR_PARAMETERS",
        "values": {
            "current": null,
            "direction": null,
            "inductance": null,
            "pole_pairs": null,
            "resistance": null,
            "voltage": null
        }
    },
    {
        "id": 50,
        "name": "OPENLOOP_PARAMETERS",
        "values": {
            "max_output_delta": null,
            "overshoot_limit": null
        }
    },
    {
        "id": 19,
        "name": "POSITION_GAIN",
        "values": {
            "KD": null,
            "KF": null,
            "KI": null,
            "KO": null,
            "KP": null,
            "MI": null
        }
    },
    {
        "id": 16,
        "name": "POSITION_LIMIT",
        "values": {
            "max": null,
            "min": null
        }
    },
    {
        "id": 26,
        "name": "POSITION_LIMIT_FACTORY",
        "values": {
            "max": null,
            "min": null
        }
    },
    {
        "id": 32,
        "name": "POSITION_PARAMETERS",
        "values": {
            "alpha": null,
            "beta": null,
            "max_delta": null,
            "offset": null,
            "scale": null
        }
    },
    {
        "id": 39,
        "name": "TEMPERATURE_PARAMETERS",
        "values": {
            "alpha": null,
            "max": null,
            "min": null,
            "scale": null
        }
    },
    {
        "id": 20,
        "name": "VELOCITY_GAIN",
        "values": {
            "KD": null,
            "KF": null,
            "KI": null,
            "KO": null,
            "KP": null,
            "MI": null
        }
    },
    {
        "id": 17,
        "name": "VELOCITY_LIMIT",
        "values": {
            "max": null,
            "min": null
        }
    },
    {
        "id": 27,
        "name": "VELOCITY_LIMIT_FACTORY",
        "values": {
            "max": null,
            "min": null
        }
    },
    {
        "id": 33,
        "name": "VELOCITY_PARAMETERS",
        "values": {
            "alpha": null,
            "beta": null,
            "offset": null,
            "scale": null
        }
    }
]