[
    {
        "id": 62,
        "name": "ACCELERATION_PARAMETERS",
        "values": {
            "inner_alpha": 0.1,
            "outer_alpha": 0.1
        }
    },
    {
        "id": 61,
        "name": "AUTO_LIMIT_AT_STARTUP",
        "values": {
            "current": 0.0,
            "delay": -1.0,
            "velocity": 0.0
        }
    },
    {
        "id": 41,
        "name": "CLIMATE_PARAMETERS",
        "values": {
            "k_margin": 1.1,
            "unused_1": 0.0,
            "unused_2": 0.0,
            "unused_3": 0.0
        }
    },
    {
        "id": 66,
        "name": "COMPLIANCE_GAIN",
        "values": 0.1
    },
    {
        "id": 68,
        "name": "COMPLIANCE_PARAMETERS",
        "values": {
            "beta": 0.97,
            "compliance_gain": 0.1,
            "stop_compliance_factor": 0.6,
            "trigger_alpha": 0.001
        }
    },
    {
        "id": 128,
        "name": "COMS_PROTOCOL",
        "values": 0.0
    },
    {
        "id": 21,
        "name": "CURRENT_GAINS",
        "values": {
            "KD": 0.0,
            "KF": 0.0,
            "KI": 36.06000137,
            "KO": 0.001,
            "KP": 0.000525,
            "MI": 60.0
        }
    },
    {
        "id": 25,
        "name": "CURRENT_GAINS_DIRECT",
        "values": {
            "KD": 0.0,
            "KF": 0.0,
            "KI": 36.06000137,
            "KO": 0.001,
            "KP": 0.000525,
            "MI": 60.0
        }
    },
    {
        "id": 65,
        "name": "CURRENT_HOLD_THRESHOLD",
        "values": 0.0
    },
    {
        "id": 18,
        "name": "CURRENT_LIMIT",
        "values": {
            "max": 3360.0,
            "min": -3360.0
        }
    },
    {
        "id": 28,
        "name": "CURRENT_LIMIT_FACTORY",
        "values": {
            "max": 3360.0,
            "min": -3360.0
        }
    },
    {
        "id": 34,
        "name": "CURRENT_PARAMETERS",
        "values": {
            "alpha": 0.441000015,
            "beta": 0.0,
            "offset": 8250.0,
            "scale": 16500.0
        }
    },
    {
        "id": 55,
        "name": "DEMAND_TIMEOUT",
        "values": 200.0
    },
    {
        "id": 103,
        "name": "DEVICE_TYPE",
        "values": 0.0
    },
    {
        "id": 106,
        "name": "ELECTRICAL_VERSION",
        "values": {
            "major": null,
            "min": null,
            "submajor": null
        }
    },
    {
        "id": 51,
        "name": "ETH_IP_ADDRESS",
        "values": {
            "a": null,
            "b": null,
            "c": null,
            "d": null
        }
    },
    {
        "id": 52,
        "name": "ETH_PORT",
        "values": null
    },
    {
        "id": 42,
        "name": "EXPECTED_DEVICES",
        "values": {
            "dev_0": null,
            "dev_1": null,
            "dev_2": null,
            "dev_3": null,
            "dev_4": null,
            "dev_5": null,
            "dev_6": null,
            "dev_7": null,
            "dev_8": null,
            "dev_9": null
        }
    },
    {
        "id": 146,
        "name": "HEARTBEAT_FREQUENCY_SET",
        "values": 0.0
    },
    {
        "id": 35,
        "name": "INPUT_VOLTAGE_PARAMETERS",
        "values": {
            "alpha": 0.001,
            "beta": 0.0,
            "offset": 0.0,
            "scale": 50.0
        }
    },
    {
        "id": 163,
        "name": "KM_BOX_OBSTACLE_00",
        "values": {
            "x1": null,
            "x2": null,
            "y1": null,
            "y2": null,
            "z1": null,
            "z2": null
        }
    },
    {
        "id": 164,
        "name": "KM_BOX_OBSTACLE_01",
        "values": {
            "x1": null,
            "x2": null,
            "y1": null,
            "y2": null,
            "z1": null,
            "z2": null
        }
    },
    {
        "id": 165,
        "name": "KM_BOX_OBSTACLE_02",
        "values": {
            "x1": null,
            "x2": null,
            "y1": null,
            "y2": null,
            "z1": null,
            "z2": null
        }
    },
    {
        "id": 166,
        "name": "KM_BOX_OBSTACLE_03",
        "values": {
            "x1": null,
            "x2": null,
            "y1": null,
            "y2": null,
            "z1": null,
            "z2": null
        }
    },
    {
        "id": 167,
        "name": "KM_BOX_OBSTACLE_04",
        "values": {
            "x1": null,
            "x2": null,
            "y1": null,
            "y2": null,
            "z1": null,
            "z2": null
        }
    },
    {
        "id": 168,
        "name": "KM_BOX_OBSTACLE_05",
        "values": {
            "x1": null,
            "x2": null,
            "y1": null,
            "y2": null,
            "z1": null,
            "z2": null
        }
    },
    {
        "id": 169,
        "name": "KM_CYLINDER_OBSTACLE_00",
        "values": {
            "radius": null,
            "x1": null,
            "x2": null,
            "y1": null,
            "y2": null,
            "z1": null,
            "z2": null
        }
    },
    {
        "id": 170,
        "name": "KM_CYLINDER_OBSTACLE_01",
        "values": {
            "radius": null,
            "x1": null,
            "x2": null,
            "y1": null,
            "y2": null,
            "z1": null,
            "z2": null
        }
    },
    {
        "id": 171,
        "name": "KM_CYLINDER_OBSTACLE_02",
        "values": {
            "radius": null,
            "x1": null,
            "x2": null,
            "y1": null,
            "y2": null,
            "z1": null,
            "z2": null
        }
    },
    {
        "id": 172,
        "name": "KM_CYLINDER_OBSTACLE_03",
        "values": {
            "radius": null,
            "x1": null,
            "x2": null,
            "y1": null,
            "y2": null,
            "z1": null,
            "z2": null
        }
    },
    {
        "id": 173,
        "name": "KM_CYLINDER_OBSTACLE_04",
        "values": {
            "radius": null,
            "x1": null,
            "x2": null,
            "y1": null,
            "y2": null,
            "z1": null,
            "z2": null
        }
    },
    {
        "id": 174,
        "name": "KM_CYLINDER_OBSTACLE_05",
        "values": {
            "radius": null,
            "x1": null,
            "x2": null,
            "y1": null,
            "y2": null,
            "z1": null,
            "z2": null
        }
    },
    {
        "id": 184,
        "name": "KM_DH_PARAMETERS_0",
        "values": {
            "a": null,
            "alpha": null,
            "d": null,
            "theta_max": null,
            "theta_min": null,
            "theta_offset": null
        }
    },
    {
        "id": 185,
        "name": "KM_DH_PARAMETERS_1",
        "values": {
            "a": null,
            "alpha": null,
            "d": null,
            "theta_max": null,
            "theta_min": null,
            "theta_offset": null
        }
    },
    {
        "id": 186,
        "name": "KM_DH_PARAMETERS_2",
        "values": {
            "a": null,
            "alpha": null,
            "d": null,
            "theta_max": null,
            "theta_min": null,
            "theta_offset": null
        }
    },
    {
        "id": 187,
        "name": "KM_DH_PARAMETERS_3",
        "values": {
            "a": null,
            "alpha": null,
            "d": null,
            "theta_max": null,
            "theta_min": null,
            "theta_offset": null
        }
    },
    {
        "id": 188,
        "name": "KM_DH_PARAMETERS_4",
        "values": {
            "a": null,
            "alpha": null,
            "d": null,
            "theta_max": null,
            "theta_min": null,
            "theta_offset": null
        }
    },
    {
        "id": 189,
        "name": "KM_DH_PARAMETERS_5",
        "values": {
            "a": null,
            "alpha": null,
            "d": null,
            "theta_max": null,
            "theta_min": null,
            "theta_offset": null
        }
    },
    {
        "id": 190,
        "name": "KM_DH_PARAMETERS_6",
        "values": {
            "a": null,
            "alpha": null,
            "d": null,
            "theta_max": null,
            "theta_min": null,
            "theta_offset": null
        }
    },
    {
        "id": 191,
        "name": "KM_DH_PARAMETERS_7",
        "values": {
            "a": null,
            "alpha": null,
            "d": null,
            "theta_max": null,
            "theta_min": null,
            "theta_offset": null
        }
    },
    {
        "id": 118,
        "name": "KM_FLOAT_PARAMETERS_2",
        "values": {
            "max_pen_correction": null,
            "max_vel_in_pen": null,
            "obs_equilib_dist": null,
            "obs_reaction_distance": null,
            "self_equilib_dist": null,
            "self_reaction_dist": null,
            "vel_half": null
        }
    },
    {
        "id": 44,
        "name": "LINK_ATTACHMENT_0",
        "values": {
            "model_number": 0.0,
            "rx": 0.0,
            "ry": 0.0,
            "rz": 0.0,
            "x": 0.0,
            "y": 0.0,
            "z": 0.0
        }
    },
    {
        "id": 45,
        "name": "LINK_ATTACHMENT_1",
        "values": {
            "model_number": 0.0,
            "rx": 0.0,
            "ry": 0.0,
            "rz": 0.0,
            "x": 0.0,
            "y": 0.0,
            "z": 0.0
        }
    },
    {
        "id": 46,
        "name": "LINK_ATTACHMENT_2",
        "values": {
            "model_number": 0.0,
            "rx": 0.0,
            "ry": 0.0,
            "rz": 0.0,
            "x": 0.0,
            "y": 0.0,
            "z": 0.0
        }
    },
    {
        "id": 47,
        "name": "LINK_ATTACHMENT_3",
        "values": {
            "model_number": 0.0,
            "rx": 0.0,
            "ry": 0.0,
            "rz": 0.0,
            "x": 0.0,
            "y": 0.0,
            "z": 0.0
        }
    },
    {
        "id": 43,
        "name": "LINK_TRANSFORM",
        "values": {
            "rx": 0.0,
            "ry": 0.0,
            "rz": 0.0,
            "x": 0.0,
            "y": 0.0,
            "z": 182.0
        }
    },
    {
        "id": 64,
        "name": "MAX_ACCELERATION",
        "values": 10.0
    },
    {
        "id": 107,
        "name": "MECHANICAL_VERSION",
        "values": {
            "major": 9.0,
            "min": 9.0,
            "submajor": 9.0
        }
    },
    {
        "id": 67,
        "name": "MODE_SETTINGS",
        "values": {
            "compliance": 2.0,
            "current_hold": 1.0
        }
    },
    {
        "id": 98,
        "name": "MODEL_NUMBER",
        "values": 1023.0
    },
    {
        "id": 48,
        "name": "MOTOR_PARAMETERS",
        "values": {
            "current": 6000.0,
            "direction": -1.0,
            "inductance": 31.5,
            "pole_pairs": 13.0,
            "resistance": 2.164,
            "voltage": 30.0
        }
    },
    {
        "id": 57,
        "name": "MOTOR_PARAMETERS_2",
        "values": {
            "current": 6000.0,
            "damping": 0.00138,
            "direction": -1.0,
            "friction": 0.114,
            "gear_ratio": 160.0,
            "inductance": 31.5,
            "inertia": 0.000152,
            "kt": 0.152,
            "kv": 0.0,
            "pole_pairs": 13.0,
            "resistance": 2.164,
            "voltage": 30.0
        }
    },
    {
        "id": 50,
        "name": "OPENLOOP_PARAMETERS",
        "values": {
            "max_output_delta": 0.0,
            "overshoot_limit": 0.017453292
        }
    },
    {
        "id": 19,
        "name": "POSITION_GAINS",
        "values": {
            "KD": 0.0,
            "KF": 0.0,
            "KI": 0.0,
            "KO": 1.0,
            "KP": 5.0,
            "MI": 3.0
        }
    },
    {
        "id": 23,
        "name": "POSITION_GAINS_INNER",
        "values": {
            "KD": null,
            "KF": null,
            "KI": null,
            "KO": null,
            "KP": null,
            "MI": null
        }
    },
    {
        "id": 16,
        "name": "POSITION_LIMIT",
        "values": {
            "max": 3.14,
            "min": 0.0174
        }
    },
    {
        "id": 26,
        "name": "POSITION_LIMIT_FACTORY",
        "values": {
            "max": 3.14,
            "min": 0.0174
        }
    },
    {
        "id": 32,
        "name": "POSITION_PARAMETERS",
        "values": {
            "alpha": 1.0,
            "beta": 0.0,
            "max_delta": 0.0,
            "offset": 0.0,
            "scale": 1.0
        }
    },
    {
        "id": 39,
        "name": "TEMPERATURE_PARAMETERS",
        "values": {
            "alpha": 0.0,
            "max": 80.0,
            "min": 0.0,
            "scale": 0.0
        }
    },
    {
        "id": 31,
        "name": "TORQUE_LIMIT",
        "values": {
            "max": 1000.0,
            "min": -1000.0
        }
    },
    {
        "id": 20,
        "name": "VELOCITY_GAINS",
        "values": {
            "KD": 0.0,
            "KF": 160.0,
            "KI": 0.0,
            "KO": 1.0,
            "KP": 0.0,
            "MI": 0.0
        }
    },
    {
        "id": 24,
        "name": "VELOCITY_GAINS_INNER",
        "values": {
            "KD": 0.0,
            "KF": 0.0,
            "KI": 1381.0,
            "KO": 1.0,
            "KP": 101.0,
            "MI": 2.4330195510499637
        }
    },
    {
        "id": 36,
        "name": "VELOCITY_INNER_PARAMETERS",
        "values": {
            "alpha": 0.165999994,
            "beta": 0.0,
            "offset": 0.0,
            "scale": 1.0
        }
    },
    {
        "id": 17,
        "name": "VELOCITY_LIMIT",
        "values": {
            "max": 0.78,
            "min": -0.78
        }
    },
    {
        "id": 27,
        "name": "VELOCITY_LIMIT_FACTORY",
        "values": {
            "max": 0.78,
            "min": -0.78
        }
    },
    {
        "id": 22,
        "name": "VELOCITY_LIMIT_INNER",
        "values": {
            "max": 200.0,
            "min": -200.0
        }
    },
    {
        "id": 29,
        "name": "VELOCITY_LIMIT_INNER_FACTORY",
        "values": {
            "max": 200.0,
            "min": -200.0
        }
    },
    {
        "id": 33,
        "name": "VELOCITY_PARAMETERS",
        "values": {
            "alpha": 0.1,
            "beta": 0.0,
            "offset": 0.0,
            "scale": 1.0
        }
    }
]